data/signalDobler 1k ohm oscilo.csv

#Digilent WaveForms Oscilloscope Acquisition
#Device Name: Discovery2
#Serial Number: SN:210321B81678
#Date Time: 2025-03-28 22:35:08.153
#Sample rate: 1.5873e+06Hz
#Samples: 8192
#Trigger: Source: Channel 1 Type: Edge Condition: Rising Level: 40 mV Hyst.: Auto HoldOff: 0 s
#Channel 1: Range: 200 mV/div Offset: 0 V Sample Mode: Average
#Wavegen Channel 1: Running
#Mode: Simple
#Type: Sine
#Frequency: 1.2 kHz
#Period: 833.3333333 us
#Amplitude: 2 V
#Offset: 0 V
#Symmetry: 50 %
#Phase: 0 °
#Power Supplies: ON
#Positive Supply: ON
#Voltage: 5 V
#Negative Supply: ON
#Voltage: -5 V

#2,4kHz
#1k ohm
#plot
Time (s),Channel 1 (V)
-0.002580165,-0.4290655434138811
-0.002579535,-0.4247528601475227
-0.002578905,-0.4211036666144466
-0.002578275,-0.4161274936147991
-0.002577645,-0.4138052795482984
-0.002577015,-0.4101560860152242
-0.002576385,-0.4065068924821518
-0.002575755,-0.402857698949076
-0.002575125,-0.3978815259494294
-0.002574495,-0.3952275670162858
-0.002573865,-0.3915783734832105
-0.002573235,-0.3875974350834911
-0.002572605,-0.3829530069504897
-0.002571975,-0.3796355582840587
-0.002571345,-0.3753228750176965
-0.002570715,-0.3713419366179811
-0.002570085,-0.367692743084907
-0.002569455,-0.3640435495518345
-0.002568825,-0.3593991214188294
-0.002568195,-0.3560816727523967
-0.002567565,-0.3524324792193242
-0.002566935,-0.3491150305528932
-0.002566305,-0.3444706024198882
-0.002565675,-0.3411531537534587
-0.002565045,-0.3361769807538121
-0.002564415,-0.3325277872207397
-0.002563785,-0.3282151039543776
-0.002563155,-0.3252294001545881
-0.002562525,-0.3215802066215155
-0.002561895,-0.3179310130884414
-0.002561265,-0.3129548400887929
-0.002560635,-0.3086421568224345
-0.002560005,-0.3049929632893604
-0.002559375,-0.3013437697562879
-0.002558745,-0.2980263210898552
-0.002558115,-0.2930501480902086
-0.002557485,-0.2894009545571345
-0.002556855,-0.2850882712907742
-0.002556225,-0.2814390777576981
-0.002555595,-0.2771263944913397
-0.002554965,-0.2738089458249087
-0.002554335,-0.2691645176919073
-0.002553705,-0.2651835792921879
-0.002553075,-0.2618661306257569
-0.002552445,-0.2572217024927534
-0.002551815,-0.2532407640930362
-0.002551185,-0.2485963359600311
-0.002550555,-0.2449471424269586
-0.002549925,-0.2409662040272414
-0.002549295,-0.2373170104941689
-0.002548665,-0.2343313066943793
-0.002548035,-0.2296868785613759
-0.002547405,-0.2253741952950175
-0.002546775,-0.2217250017619414
-0.002546145,-0.2177440633622223
-0.002545515,-0.2137631249625069
-0.002544885,-0.2094504416961465
-0.002544255,-0.2051377584297882
-0.002543625,-0.2028155443632845
-0.002542995,-0.198171116230281
-0.002542365,-0.1945219226972086
-0.002541735,-0.1898774945642034
-0.002541105,-0.1865600458977707
-0.002540475,-0.1829108523646983
-0.002539845,-0.178929913964981
-0.002539215,-0.1752807204319085
-0.002538585,-0.1703045474322603
-0.002537955,-0.1666553538991862
-0.002537325,-0.1630061603661137
-0.002536695,-0.159688711699681
-0.002536065,-0.155376028433319
-0.002535435,-0.1517268349002465
-0.002534805,-0.1474141516338862
-0.002534175,-0.1444284478340966
-0.002533545,-0.1407792543010241
-0.002532915,-0.1367983159013069
-0.002532285,-0.1328173775015914
-0.002531655,-0.1285046942352293
-0.002531025,-0.1251872455687966
-0.002530395,-0.1215380520357241
-0.002529765,-0.1168936239027206
-0.002529135,-0.1142396649695737
-0.002528505,-0.1095952368365724
-0.002527875,-0.1059460433034982
-0.002527245,-0.1019651049037828
-0.002526615,-0.09931114597063614
-0.002525985,-0.09533020757091891
-0.002525355,-0.09267624863777407
-0.002524725,-0.08803182050477062
-0.002524095,-0.08438262697169482
-0.002523465,-0.08073343343862234
-0.002522835,-0.07774772963883442
-0.002522205,-0.07476202583904784
-0.002521575,-0.07111283230597235
-0.002520945,-0.0671318939062551
-0.002520315,-0.06315095550653785
-0.002519685,-0.05983350684010681
-0.002519055,-0.05585256844038822
-0.002518425,-0.05286686464060164
-0.002517795,-0.0495494159741706
-0.002517165,-0.04689545704102697
-0.002516535,-0.04324626350795163
-0.002515905,-0.03893358024159128
-0.002515275,-0.03594787644180472
-0.002514645,-0.03263042777537233
-0.002514015,-0.02931297910893947
-0.002513385,-0.02533204070922404
-0.002512755,-0.02267808177607921
-0.002512125,-0.01936063310964968
-0.002511495,-0.01637492930986024
-0.002510865,-0.01338922551007231
-0.002510235,-0.01139875631021459
-0.002509605,-0.007417817910496445
-0.002508975,-0.003768624377420646
-0.002508345,-0.0001194308443481652
-0.002507715,0.00220278322215356
-0.002507085,0.005520231888583088
-0.002506455,0.008837680555015633
-0.002505825,0.01215512922144667
-0.002505195,0.01514083302123324
-0.002504565,0.01812653682102253
-0.002503935,0.02144398548745523
-0.002503305,0.02509317902052771
-0.002502675,0.02675190335374323
-0.002502045,0.02973760715353267
-0.002501415,0.0330550558199622
-0.002500785,0.03604075961975013
-0.002500155,0.03935820828617966
-0.002499525,0.04234391208596909
-0.002498895,0.04400263641918582
-0.002498265,0.04665659535232944
-0.002497635,0.04964229915211738
-0.002497005,0.05295974781854992
-0.002496375,0.05627719648497945
-0.002495745,0.05826766568483807
-0.002495115,0.0615851143512676
-0.002494485,0.06423907328441393
-0.002493855,0.06656128735091701
-0.002493225,0.06954699115070359
-0.002492595,0.0712057154839191
-0.002491965,0.07452316415035135
-0.002491335,0.07717712308349498
-0.002490705,0.0791675922833536
-0.002490075,0.08148980634985427
-0.002489445,0.08613423448285877
-0.002488815,0.08746121394943118
-0.002488185,0.08911993828264671
-0.002487555,0.09177389721579153
-0.002486925,0.09409611128229385
-0.002486295,0.09542309074886567
-0.002485665,0.0987405394152967
-0.002485035,0.1020579880817262
-0.002484405,0.1040484572815864
-0.002483775,0.106038926481445
-0.002483145,0.1080293956813036
-0.002482515,0.1110150994810915
-0.002481885,0.1130055686809508
-0.002481255,0.1143325481475226
-0.002480625,0.1166547622140243
-0.002479995,0.118645231413882
-0.002479365,0.1209674454803846
-0.002478735,0.1239531492801726
-0.002478105,0.1259436184800303
-0.002477475,0.1276023428132467
-0.002476845,0.130256301746392
-0.002476215,0.1312515363463209
-0.002475585,0.1335737504128226
-0.002474955,0.1352324747460374
-0.002474325,0.1385499234124691
-0.002473695,0.1395451580123984
-0.002473065,0.1408721374789703
-0.002472435,0.1428626066788295
-0.002471805,0.144853075878689
-0.002471175,0.1468435450785467
-0.002470545,0.1475070348118329
-0.002469915,0.1494975040116907
-0.002469285,0.1514879732115502
-0.002468655,0.1534784424114088
-0.002468025,0.1548054218779806
-0.002467395,0.1558006564779105
-0.002466765,0.1567958910778409
-0.002466135,0.1591181051443416
-0.002465505,0.160445084610914
-0.002464875,0.1634307884107028
-0.002464245,0.1654212576105605
-0.002463615,0.1667482370771329
-0.002462985,0.1677434716770618
-0.002462355,0.1680752165437054
-0.002461725,0.1690704511436353
-0.002461095,0.1703974306102071
-0.002460465,0.1727196446767088
-0.002459835,0.1753736036098536
-0.002459205,0.1753736036098536
-0.002458575,0.1767005830764261
-0.002457945,0.1767005830764261
-0.002457315,0.1783593074096416
-0.002456685,0.1803497766095002
-0.002456055,0.1823402458093588
-0.002455425,0.1820085009427157
-0.002454795,0.1843307150092176
-0.002454165,0.1846624598758606
-0.002453535,0.1863211842090761
-0.002452905,0.1856576944757902
-0.002452275,0.1873164188090054
-0.002451645,0.1906338674754364
-0.002451015,0.1909656123420795
-0.002450385,0.1919608469420088
-0.002449755,0.1916291020753662
-0.002449125,0.192624336675295
-0.002448495,0.1942830610085105
-0.002447865,0.1946148058751535
-0.002447235,0.1949465507417968
-0.002446605,0.1949465507417968
-0.002445975,0.1962735302083685
-0.002445345,0.1966052750750123
-0.002444715,0.1989274891415145
-0.002444085,0.1999227237414433
-0.002443455,0.2012497032080157
-0.002442825,0.2009179583413727
-0.002442195,0.2012497032080157
-0.002441565,0.202244937807945
-0.002440935,0.2012497032080162
-0.002440305,0.2015814480746588
-0.002439675,0.2029084275412314
-0.002439045,0.2032401724078743
-0.002438415,0.2039036621411605
-0.002437785,0.2052306416077324
-0.002437155,0.2062258762076623
-0.002436525,0.2058941313410192
-0.002435895,0.2065576210743051
-0.002435265,0.2068893659409485
-0.002434635,0.2072211108075917
-0.002434005,0.2075528556742347
-0.002433375,0.2072211108075916
-0.002432745,0.2075528556742353
-0.002432115,0.2088798351408071
-0.002431485,0.2088798351408071
-0.002430855,0.209543324874093
-0.002430225,0.2102068146073795
-0.002429595,0.2088798351408075
-0.002428965,0.2098750697407364
-0.002428335,0.2092115800074502
-0.002427705,0.2085480902741646
-0.002427075,0.2098750697407364
-0.002426445,0.2105385594740226
-0.002425815,0.2102068146073797
-0.002425185,0.2098750697407364
-0.002424555,0.2095433248740937
-0.002423925,0.2105385594740226
-0.002423295,0.2098750697407364
-0.002422665,0.2108703043406653
-0.002422035,0.2098750697407364
-0.002421405,0.2095433248740933
-0.002420775,0.2095433248740933
-0.002420145,0.2095433248740933
-0.002419515,0.2092115800074502
-0.002418885,0.2095433248740933
-0.002418255,0.208548090274164
-0.002417625,0.2092115800074501
-0.002416995,0.2088798351408071
-0.002416365,0.2095433248740933
-0.002415735,0.2085480902741644
-0.002415105,0.208548090274164
-0.002414475,0.2068893659409485
-0.002413845,0.2075528556742347
-0.002413215,0.2065576210743054
-0.002412585,0.2065576210743053
-0.002411955,0.2062258762076623
-0.002411325,0.2075528556742347
-0.002410695,0.205230641607734
-0.002410065,0.2048988967410899
-0.002409435,0.2055623864743761
-0.002408805,0.2052306416077331
-0.002408175,0.2039036621411605
-0.002407545,0.2032401724078742
-0.002406915,0.2029084275412312
-0.002406285,0.2025766826745881
-0.002405655,0.2019131929413022
-0.002405025,0.2015814480746588
-0.002404395,0.2019131929413019
-0.002403765,0.2002544686080872
-0.002403135,0.1999227237414433
-0.002402505,0.1992592340081568
-0.002401875,0.1985957442748709
-0.002401245,0.1972687648082985
-0.002400615,0.1979322545415844
-0.002399985,0.195610040475083
-0.002399355,0.1962735302083692
-0.002398725,0.1956100404750833
-0.002398095,0.1952782956084398
-0.002397465,0.1936195712752242
-0.002396835,0.1932878264085812
-0.002396205,0.192624336675295
-0.002395575,0.1926243366752938
-0.002394945,0.1899703777421502
-0.002394315,0.189306888008864
-0.002393685,0.1896386328755069
-0.002393055,0.1873164188090054
-0.002392425,0.1873164188090048
-0.002391795,0.1859894393424329
-0.002391165,0.1863211842090761
-0.002390535,0.1849942047425033
-0.002389905,0.1843307150092174
-0.002389275,0.1833354804092881
-0.002388645,0.1823402458093593
-0.002388015,0.1813450112094295
-0.002387385,0.1806815214761429
-0.002386755,0.179686286876214
-0.002386125,0.1786910522762847
-0.002385495,0.1773640728097116
-0.002384865,0.1760370933431399
-0.002384235,0.1743783690099243
-0.002383605,0.1743783690099243
-0.002382975,0.1737148792766381
-0.002382345,0.1727196446767088
-0.002381715,0.1713926652101364
-0.002381085,0.1703974306102071
-0.002380455,0.1680752165437057
-0.002379825,0.1687387062769916
-0.002379195,0.167079981943776
-0.002378565,0.1657530024772043
-0.002377935,0.1654212576105605
-0.002377305,0.163762533277345
-0.002376675,0.1621038089441302
-0.002376045,0.1607768294775571
-0.002375415,0.1607768294775568
-0.002374785,0.1601133397442709
-0.002374155,0.157459380811126
-0.002373525,0.157459380811126
-0.002372895,0.1561324013445536
-0.002372265,0.1548054218779812
-0.002371635,0.1544736770113382
-0.002371005,0.1528149526781226
-0.002370375,0.150824483478263
-0.002369745,0.1488340142784053
-0.002369115,0.1475070348118329
-0.002368485,0.1475070348118329
-0.002367855,0.1465118002119036
-0.002367225,0.1461800553452605
-0.002366595,0.1435260964121169
-0.002365965,0.1428626066788295
-0.002365335,0.1418673720788999
-0.002364705,0.141203882345614
-0.002364075,0.1398769028790416
-0.002363445,0.1375546888125394
-0.002362815,0.1365594542126105
-0.002362185,0.1355642196126812
-0.002361555,0.1345689850127523
-0.002360925,0.1322467709462502
-0.002360295,0.1312515363463204
-0.002359665,0.1302563017463916
-0.002359035,0.1282658325465329
-0.002358405,0.1272705979466027
-0.002357775,0.125280128746745
-0.002357145,0.1246166390134588
-0.002356515,0.1246166390134588
-0.002355885,0.1232896595468864
-0.002355255,0.1219626800803132
-0.002354625,0.1203039557470984
-0.002353995,0.118976976280526
-0.002353365,0.1176499968139529
-0.002352735,0.1159912724807381
-0.002352105,0.1143325481475226
-0.002351475,0.1136690584142367
-0.002350845,0.1120103340810208
-0.002350215,0.1100198648811622
-0.002349585,0.1100198648811622
-0.002348955,0.1070341610813743
-0.002348325,0.1063706713480876
-0.002347695,0.1053754367481588
-0.002347065,0.1040484572815864
-0.002346435,0.1037167124149434
-0.002345805,0.1013944983484415
-0.002345175,0.09973577401522601
-0.002344545,0.0984087945486536
-0.002343915,0.09774530481536739
-0.002343285,0.09608658048215128
-0.002342655,0.09475960101557947
-0.002342025,0.09376436641565015
-0.002341395,0.09177389721579243
-0.002340765,0.08945168314928981
-0.002340135,0.08978342801593291
-0.002339505,0.08779295881607518
-0.002338875,0.08580248961621567
-0.002338245,0.08447551014964294
-0.002337615,0.08381202041635705
-0.002336985,0.08248504094978464
-0.002336355,0.08082631661656986
-0.002335725,0.08049457174992601
-0.002335095,0.07850410255006739
-0.002334465,0.07651363335020966
-0.002333835,0.07684537821685186
-0.002333205,0.0748549090169922
-0.002332575,0.07253269495049153
-0.002331945,0.07153746035056222
-0.002331315,0.07021048088399039
-0.002330685,0.06822001168413118
-0.002330055,0.06855175655077428
-0.002329425,0.06656128735091656
-0.002328795,0.06423907328441393
-0.002328165,0.06357558355112726
-0.002327535,0.06258034895119842
-0.002326905,0.06158511435126911
-0.002326275,0.05893115541812412
-0.002325645,0.05859941055148117
-0.002325015,0.05660894135162255
-0.002324385,0.0562771964849796
-0.002323755,0.05627719648497945
-0.002323125,0.05329149268519075
-0.002322495,0.051632768351976
-0.002321865,0.05096927861868979
-0.002321235,0.04931055428547398
-0.002320605,0.04864706455218806
-0.002319975,0.04665659535232944
-0.002319345,0.04499787101911468
-0.002318715,0.04367089155254152
-0.002318085,0.04300740181925455
-0.002317455,0.04134867748603979
-0.002316825,0.03968995315282427
-0.002316195,0.03968995315282337
-0.002315565,0.03769948395296564
-0.002314935,0.03736773908632254
-0.002314305,0.03604075961975074
-0.002313675,0.03471378015317772
-0.002313045,0.03371854555324841
-0.002312415,0.03172807635338978
-0.002311785,0.03073284175346047
-0.002311155,0.02940586228688745
-0.002310525,0.02807888282031564
-0.002309895,0.02608841362045702
-0.002309265,0.02608841362045702
-0.002308635,0.0240979444205984
-0.002308005,0.0240979444205984
-0.002307375,0.02177573035409773
-0.002306745,0.02011700602088115
-0.002306115,0.02044875088752335
-0.002305485,0.01845828168766564
-0.002304855,0.01746304708773633
-0.002304225,0.01646781248780747
-0.002303595,0.01414559842130529
-0.002302965,0.01315036382137598
-0.002302335,0.01248687408809007
-0.002301705,0.01182338435480356
-0.002301075,0.009832915154944642
-0.002300445,0.009169425421658736
-0.002299815,0.008174190821729425
-0.002299185,0.00751070108844352
-0.002298555,0.005520231888584596
-0.002297925,0.004524997288655286
-0.002297295,0.004193252422012333
-0.002296665,0.00220278322215356
-0.002296035,0.002202783222152957
-0.002295405,0.0008758037555811456
-0.002294775,-0.0004511757109912688
-0.002294145,-0.002109900044206787
-0.002293515,-0.002109900044206787
-0.002292885,-0.003436879510779201
-0.002292255,-0.004432114110708059
-0.002291625,-0.005759093577280927
-0.002290995,-0.007417817910495992
-0.002290365,-0.006422583310567134
-0.002289735,-0.007749562777139549
-0.002289105,-0.009408287110355821
-0.002288475,-0.01106701144357058
-0.002287845,-0.012393990910143
-0.002287215,-0.01338922551007186
-0.002286585,-0.01305748064342921
-0.002285955,-0.01537969470993108
-0.002285325,-0.01571143957657404
-0.002284695,-0.01604318444321714
-0.002284065,-0.01737016390979016
-0.002283435,-0.01869714337636197
-0.002282805,-0.01936063310964817
-0.002282175,-0.01902888824300522
-0.002281545,-0.0216828471761499
-0.002280915,-0.022014592042793
-0.002280285,-0.02267808177607921
-0.002279655,-0.02500029584258093
-0.002279025,-0.02599553044251055
-0.002278395,-0.02665902017579645
-0.002277765,-0.02632727530915335
-0.002277135,-0.0259955304425104
-0.002276505,-0.02931297910894128
-0.002275875,-0.02831774450901197
-0.002275245,-0.02864948937565508
-0.002274615,-0.02964472397558439
-0.002273985,-0.03163519317544331
-0.002273355,-0.03229868290872921
-0.002272725,-0.03296217264201542
-0.002272095,-0.03362566237530133
-0.002271465,-0.03462089697523094
-0.002270835,-0.03495264184187405
-0.002270205,-0.035284386708517
-0.002269575,-0.03661136617508956
-0.002268945,-0.03793834564166227
-0.002268315,-0.03860183537494818
-0.002267685,-0.0392653251082344
-0.002267055,-0.04059230457480621
-0.002266425,-0.0399288148415206
-0.002265795,-0.04092404944144991
-0.002265165,-0.04225102890802172
-0.002264535,-0.04291451864130853
-0.002263905,-0.04357800837459503
-0.002263275,-0.04424149810788094
-0.002262645,-0.04457324297452404
-0.002262015,-0.0455684775744529
-0.002261385,-0.04424149810788094
-0.002260755,-0.04590022244109647
-0.002260125,-0.04755894677431122
-0.002259495,-0.04855418137424129
-0.002258865,-0.04921767110752721
-0.002258235,-0.04855418137424129
-0.002257605,-0.05087639544074302
-0.002256975,-0.04954941597417151
-0.002256345,-0.05153988517402923
-0.002255715,-0.05120814030738612
-0.002255085,-0.05120814030738612
-0.002254455,-0.05220337490731543
-0.002253825,-0.05286686464060164
-0.002253195,-0.05286686464060164
-0.002252565,-0.05353035437388784
-0.002251935,-0.0538620992405314
-0.002251305,-0.05485733384046027
-0.002250675,-0.05552082357374646
-0.002250045,-0.05618431330703238
-0.002249415,-0.05618431330703268
-0.002248785,-0.05717954790696184
-0.002248155,-0.05684780304031888
-0.002247525,-0.05717954790696199
-0.002246895,-0.05784303764024864
-0.002246265,-0.0588382722401775
-0.002245635,-0.0588382722401775
-0.002245005,-0.05950176197346341
-0.002244375,-0.06049699657339302
-0.002243745,-0.06082874144003612
-0.002243115,-0.06016525170674991
-0.002242485,-0.06082874144003612
-0.002241855,-0.06149223117332234
-0.002241225,-0.06149223117332234
-0.002240595,-0.06248746577325165
-0.002239965,-0.0628192106398946
-0.002239335,-0.06182397603996544
-0.002238705,-0.06348270037318096
-0.002238075,-0.06381444523982391
-0.002237445,-0.06414619010646716
-0.002236815,-0.06315095550653844
-0.002236185,-0.06447793497311027
-0.002235555,-0.06348270037318096
-0.002234925,-0.06447793497310982
-0.002234295,-0.06580491443968269
-0.002233665,-0.06514142470639647
-0.002233035,-0.06480967983975353
-0.002232405,-0.06580491443968269
-0.002231775,-0.0671318939062551
-0.002231145,-0.0671318939062551
-0.002230515,-0.06580491443968269
-0.002229885,-0.06646840417296858
-0.002229255,-0.0674636387728982
-0.002228625,-0.0671318939062551
-0.002227995,-0.067795383639541
-0.002227365,-0.06812712850618441
-0.002226735,-0.06779538363954146
-0.002226105,-0.06812712850618441
-0.002225475,-0.06845887337282751
-0.002224845,-0.06879061823947032
-0.002224215,-0.06812712850618441
-0.002223585,-0.06945410797275682
-0.002222955,-0.06845887337282797
-0.002222325,-0.06879061823947062
-0.002221695,-0.06912236310611342
-0.002221065,-0.06845887337282751
-0.002220435,-0.06879061823947062
-0.002219805,-0.06879061823947062
-0.002219175,-0.06879061823947062
-0.002218545,-0.07011759770604303
-0.002217915,-0.06978585283940007
-0.002217285,-0.06945410797275682
-0.002216655,-0.07044934257268583
-0.002216025,-0.06978585283939992
-0.002215395,-0.06945410797275682
-0.002214765,-0.06912236310611403
-0.002214135,-0.06978585283939992
-0.002213505,-0.06945410797275682
-0.002212875,-0.07011759770604273
-0.002212245,-0.07011759770604303
-0.002211615,-0.06978585283939992
-0.002210985,-0.07044934257268613
-0.002210355,-0.06912236310611372
-0.002209725,-0.06978585283939961
