data/signalDobler 100 ohm oscilo.csv

#Digilent WaveForms Oscilloscope Acquisition
#Device Name: Discovery2
#Serial Number: SN:210321B81678
#Date Time: 2025-03-28 22:31:59.056
#Sample rate: 1.5873e+06Hz
#Samples: 8192
#Trigger: Source: Channel 1 Type: Edge Condition: Rising Level: 40 mV Hyst.: Auto HoldOff: 0 s
#Channel 1: Range: 50 mV/div Offset: 0 V Sample Mode: Average
#Wavegen Channel 1: Running
#Mode: Simple
#Type: Sine
#Frequency: 1.2 kHz
#Period: 833.3333333 us
#Amplitude: 2 V
#Offset: 0 V
#Symmetry: 50 %
#Phase: 0 °
#Power Supplies: ON
#Positive Supply: ON
#Voltage: 5 V
#Negative Supply: ON
#Voltage: -5 V

#2,4kHz
#100 ohm 
#oscilo
Time (s),Channel 1 (V)
-0.0025800075,-0.1321538877683034
-0.0025793775,-0.1311586531683746
-0.0025787475,-0.130826908301731
-0.0025781175,-0.1294999288351581
-0.0025774875,-0.1285046942352293
-0.0025768575,-0.1275094596352999
-0.002576227500000001,-0.126845969902014
-0.0025755975,-0.1265142250353706
-0.0025749675,-0.1261824801687275
-0.0025743375,-0.1255189904354416
-0.0025737075,-0.1241920109688689
-0.0025730775,-0.1235285212355826
-0.0025724475,-0.1231967763689396
-0.0025718175,-0.1225332866356534
-0.0025711875,-0.1208745623024374
-0.0025705575,-0.1198793277025086
-0.0025699275,-0.1195475828358655
-0.002569297500000001,-0.1178888585026507
-0.0025686675,-0.1168936239027206
-0.0025680375,-0.1158983893027918
-0.0025674075,-0.1168936239027206
-0.0025667775,-0.1162301341694344
-0.0025661475,-0.1145714098362185
-0.0025655175,-0.1135761752362896
-0.0025648875,-0.1122491957697172
-0.002564257500000001,-0.1119174509030742
-0.0025636275,-0.1095952368365724
-0.0025629975,-0.1086000022366425
-0.0025623675,-0.1072730227700706
-0.0025617375,-0.1066095330367844
-0.0025611075,-0.1052825535702123
-0.0025604775,-0.1059460433034982
-0.0025598475,-0.1032920843703534
-0.002559217500000001,-0.1032920843703534
-0.0025585875,-0.1016333600371379
-0.0025579575,-0.1003063805705655
-0.0025573275,-0.09864765623734995
-0.0025566975,-0.09798416650406373
-0.0025560675,-0.09732067677077692
-0.0025554375,-0.09599369730420511
-0.0025548075,-0.09400322810434648
-0.002554177500000001,-0.09367148323770354
-0.0025535475,-0.09300799350441719
-0.0025529175,-0.09101752430455856
-0.0025522875,-0.08935879997134304
-0.0025516575,-0.08836356537141372
-0.0025510275,-0.08770007563812647
-0.0025503975,-0.0853778615716258
-0.0025497675,-0.08471437183833959
-0.002549137500000001,-0.08338739237176777
-0.0025485075,-0.08106517830526545
-0.0025478775,-0.08073343343862234
-0.0025472475,-0.07940645397205053
-0.0025466175,-0.07807947450547752
-0.0025459875,-0.0767524950389042
-0.0025453575,-0.07476202583904648
-0.0025447275,-0.07376679123911717
-0.002544097500000001,-0.07343504637247422
-0.0025434675,-0.07177632203925854
-0.0025428375,-0.06978585283939992
-0.0025422075,-0.06845887337282811
-0.0025415775,-0.0671318939062551
-0.0025409475,-0.06547316957303913
-0.0025403175,-0.06447793497311027
-0.0025396875,-0.06281921063989475
-0.002539057500000001,-0.06049699657339408
-0.0025384275,-0.05950176197346371
-0.0025377975,-0.0581747825068913
-0.0025371675,-0.05751129277360539
-0.0025365375,-0.05552082357374646
-0.0025359075,-0.05353035437388694
-0.0025352775,-0.05153988517402923
-0.0025346475,-0.0495494159741706
-0.0025340175,-0.04855418137424069
-0.0025333875,-0.04722720190766888
-0.0025327575,-0.04755894677431198
-0.002532127500000001,-0.04556847757445426
-0.0025314975,-0.04291451864130853
-0.0025308675,-0.04158753917473507
-0.0025302375,-0.0392653251082344
-0.0025296075,-0.03793834564166197
-0.0025289775,-0.03760660077501782
-0.0025283475,-0.03528438670851715
-0.0025277175,-0.03395740724194474
-0.002527087500000001,-0.03163519317544407
-0.0025264575,-0.0309717034421568
-0.0025258275,-0.02898123424229818
-0.0025251975,-0.02732250990908266
-0.0025245675,-0.02466855097593783
-0.0025239375,-0.02334157150936466
-0.0025233075,-0.0216828471761499
-0.0025226775,-0.02035586770957749
-0.002522047500000001,-0.01836539850971977
-0.0025214175,-0.01803365364307576
-0.0025207875,-0.01571143957657404
-0.0025201575,-0.01504794984328783
-0.0025195275,-0.01405271524335852
-0.0025188975,-0.01173050117685619
-0.0025182675,-0.01040352171028438
-0.0025176375,-0.007749562777139549
-0.002517007500000001,-0.006090838443924784
-0.0025163775,-0.003436879510779201
-0.0025157475,-0.001778155177563683
-0.0025151175,-0.001114665444277778
-0.0025144875,0.0008758037555811456
-0.0025138575,0.00286627295544037
-0.0025132275,0.004193252422012182
-0.0025125975,0.005188487021941492
-0.002511967500000001,0.006515466488513303
-0.0025113375,0.009501170288301839
-0.0025107075,0.01049640488823115
-0.0025100775,0.01248687408808887
-0.0025094475,0.0148090881545915
-0.0025088175,0.01580432275452172
-0.0025081875,0.01779479195437943
-0.0025075575,0.01978526115423805
-0.002506927500000001,0.02011700602088101
-0.0025062975,0.02210747522073978
-0.0025056675,0.02476143415388461
-0.0025050375,0.02675190335374232
-0.0025044075,0.02708364822038633
-0.0025037775,0.0284106276869595
-0.0025031475,0.03006935202017426
-0.0025025175,0.03205982122003288
-0.0025018875,0.03471378015317817
-0.0025012575,0.03570901475310702
-0.0025006275,0.03703599421967944
-0.002499997500000001,0.03968995315282306
-0.0024993675,0.04101693261939668
-0.0024987375,0.04234391208596969
-0.0024981075,0.04367089155254152
-0.0024974775,0.04566136075240013
-0.0024968475,0.04897880941883161
-0.0024962175,0.04997404401876047
-0.0024955875,0.05030578888540359
-0.002494957500000001,0.0516327683519754
-0.0024943275,0.05627719648497945
-0.0024936975,0.05594545161833665
-0.0024930675,0.05660894135162255
-0.0024924375,0.05826766568483807
-0.0024918075,0.06025813488469745
-0.0024911775,0.06191685921791221
-0.0024905475,0.06390732841777083
-0.002489917500000001,0.06556605275098559
-0.0024892875,0.06755652195084497
-0.0024886575,0.06855175655077428
-0.0024880275,0.0712057154839191
-0.0024873975,0.0712057154839191
-0.0024867675,0.07319618468377863
-0.0024861375,0.07518665388363635
-0.0024855075,0.07651363335020876
-0.002484877500000001,0.07817235768342354
-0.0024842475,0.08049457174992601
-0.0024836175,0.08115806148321221
-0.0024829875,0.08182155121649842
-0.0024823575,0.08480725501628636
-0.0024817275,0.08480725501628772
-0.0024810975,0.08779295881607428
-0.0024804675,0.08878819341600359
-0.002479837500000001,0.09044691774921837
-0.0024792075,0.09210564208243463
-0.0024785775,0.09343262154900706
-0.0024779475,0.09475960101557887
-0.0024773175,0.09641832534879498
-0.0024766875,0.09840879454865435
-0.0024760575,0.1000675188818691
-0.0024754275,0.1007310086151553
-0.002474797500000001,0.103053222681656
-0.0024741675,0.1040484572815864
-0.0024735375,0.1040484572815864
-0.0024729075,0.10670241621473
-0.0024722775,0.1083611405479467
-0.0024716475,0.1086928854145903
-0.0024710175,0.1096881200145191
-0.0024703875,0.1110150994810915
-0.002469757500000001,0.1133373135475922
-0.0024691275,0.1146642930141657
-0.0024684975,0.1153277827474519
-0.0024678675,0.1156595276140948
-0.0024672375,0.1179817416805967
-0.0024666075,0.1199722108804562
-0.0024659775,0.121962680080314
-0.0024653475,0.1232896595468864
-0.0024647175,0.124284894146816
-0.0024640875,0.1249483838801019
-0.0024634575,0.1262753633466743
-0.002462827500000001,0.1279340876798891
-0.0024621975,0.1282658325465329
-0.0024615675,0.1302563017463923
-0.0024609375,0.1319150260796071
-0.0024603075,0.1329102606795364
-0.0024596775,0.1335737504128227
-0.0024590475,0.1339054952794657
-0.0024584175,0.1358959644793243
-0.002457787500000001,0.1365594542126102
-0.0024571575,0.1388816682791122
-0.0024565275,0.1398769028790416
-0.0024558975,0.141203882345614
-0.0024552675,0.1418673720789002
-0.0024546375,0.1431943515454732
-0.0024540075,0.144521331012045
-0.0024533775,0.1448530758786881
-0.002452747500000001,0.145848310478617
-0.0024521175,0.1468435450785467
-0.0024514875,0.147838779678476
-0.0024508575,0.1494975040116916
-0.0024502275,0.1501609937449778
-0.0024495975,0.1528149526781225
-0.0024489675,0.1524832078114795
-0.0024483375,0.1531466975447657
-0.002447707500000001,0.1534784424114086
-0.0024470775,0.1558006564779105
-0.0024464475,0.1567958910778398
-0.0024458175,0.1564641462111969
-0.0024451875,0.1577911256777692
-0.0024445575,0.1591181051443416
-0.0024439275,0.1591181051443416
-0.0024432975,0.160445084610914
-0.002442667500000001,0.1614403192108428
-0.0024420375,0.1630990435440588
-0.0024414075,0.1634307884107019
-0.0024407775,0.1647577678772737
-0.0024401475,0.1647577678772743
-0.0024395175,0.166084747343847
-0.0024388875,0.1667482370771329
-0.0024382575,0.1660847473438467
-0.002437627500000001,0.1674117268104185
-0.0024369975,0.1697339408769209
-0.0024363675,0.1703974306102071
-0.0024357375,0.171392665210136
-0.0024351075,0.1720561549434226
-0.0024344775,0.1727196446767092
-0.0024338475,0.1737148792766381
-0.0024332175,0.173383134409995
-0.0024325875,0.1740466241432814
-0.0024319575,0.1743783690099243
-0.0024313275,0.1753736036098536
-0.0024306975,0.1757053484764966
-0.0024300675,0.1770323279430692
-0.0024294375,0.1773640728097124
-0.0024288075,0.1776958176763554
-0.0024281775,0.1783593074096416
-0.0024275475,0.1786910522762854
-0.0024269175,0.1803497766095002
-0.0024262875,0.1806815214761433
-0.002425657500000001,0.1810132663427862
-0.0024250275,0.1816767560760726
-0.0024243975,0.1816767560760726
-0.0024237675,0.1816767560760726
-0.0024231375,0.1833354804092881
-0.0024225075,0.1836672252759312
-0.0024218775,0.1836672252759312
-0.0024212475,0.1843307150092174
-0.002420617500000001,0.1833354804092886
-0.0024199875,0.1836672252759312
-0.0024193575,0.1839989701425743
-0.0024187275,0.1846624598758606
-0.0024180975,0.1859894393424329
-0.0024174675,0.1866529290757195
-0.0024168375,0.1873164188090054
-0.0024162075,0.1869846739423623
-0.002415577500000001,0.1869846739423623
-0.0024149475,0.1859894393424329
-0.0024143175,0.1866529290757192
-0.0024136875,0.1883116534089347
-0.0024130575,0.1879799085422916
-0.0024124275,0.1883116534089344
-0.0024117975,0.1876481636756485
-0.0024111675,0.1879799085422916
-0.002410537500000001,0.1879799085422916
-0.0024099075,0.1886433982755778
-0.0024092775,0.1883116534089347
-0.0024086475,0.1886433982755776
-0.0024080175,0.1883116534089347
-0.0024073875,0.1889751431422209
-0.0024067575,0.1889751431422209
-0.0024061275,0.189306888008864
-0.002405497500000001,0.188975143142221
-0.0024048675,0.1899703777421502
-0.0024042375,0.1896386328755071
-0.0024036075,0.1889751431422212
-0.0024029775,0.1896386328755071
-0.0024023475,0.1893068880088639
-0.0024017175,0.1889751431422209
-0.0024010875,0.189306888008864
-0.002400457500000001,0.189306888008864
-0.0023998275,0.1886433982755778
-0.0023991975,0.1869846739423623
-0.0023985675,0.1879799085422911
-0.0023979375,0.1876481636756485
-0.0023973075,0.1879799085422911
-0.0023966775,0.1869846739423623
-0.0023960475,0.1869846739423623
-0.0023954175,0.1866529290757193
-0.0023947875,0.1869846739423623
-0.0023941575,0.1869846739423623
-0.0023935275,0.1856576944757905
-0.0023928975,0.1856576944757899
-0.0023922675,0.1853259496091461
-0.0023916375,0.1839989701425743
-0.0023910075,0.1853259496091468
-0.0023903775,0.1843307150092174
-0.0023897475,0.1843307150092174
-0.0023891175,0.1849942047425036
-0.002388487500000001,0.1833354804092889
-0.0023878575,0.1826719906760019
-0.0023872275,0.1820085009427157
-0.0023865975,0.1820085009427157
-0.0023859675,0.1810132663427864
-0.0023853375,0.1803497766094994
-0.0023847075,0.1786910522762847
-0.0023840775,0.1786910522762847
-0.002383447500000001,0.1783593074096417
-0.0023828175,0.1780275625429985
-0.0023821875,0.1780275625429985
-0.0023815575,0.1773640728097123
-0.0023809275,0.1757053484764967
-0.0023802975,0.1753736036098532
-0.0023796675,0.1743783690099243
-0.0023790375,0.1740466241432812
-0.002378407500000001,0.1737148792766383
-0.0023777775,0.1737148792766381
-0.0023771475,0.1720561549434226
-0.0023765175,0.1713926652101367
-0.0023758875,0.1707291754768502
-0.0023752575,0.1703974306102067
-0.0023746275,0.1694021960102778
-0.0023739975,0.1687387062769916
-0.002373367500000001,0.1677434716770627
-0.0023727375,0.1667482370771329
-0.0023721075,0.1657530024772036
-0.0023714775,0.1640942781439889
-0.0023708475,0.163762533277345
-0.0023702175,0.1627672986774154
-0.0023695875,0.1621038089441295
-0.0023689575,0.1607768294775571
-0.002368327500000001,0.1594498500109853
-0.0023676975,0.1594498500109847
-0.0023670675,0.1584546154110553
-0.0023664375,0.1561324013445547
-0.0023658075,0.1554689116112674
-0.0023651775,0.1548054218779812
-0.0023645475,0.1548054218779812
-0.0023639175,0.1524832078114795
-0.0023632875,0.1511562283449068
-0.0023626575,0.1504927386116209
-0.0023620275,0.1494975040116916
-0.0023613975,0.1485022694117627
-0.0023607675,0.1471752899451898
-0.0023601375,0.1458483104786168
-0.0023595075,0.144521331012045
-0.0023588775,0.1438578412787588
-0.0023582475,0.1421991169455427
-0.0023576175,0.1408721374789709
-0.0023569875,0.1405403926123278
-0.002356357500000001,0.139213413145756
-0.0023557275,0.1372229439458967
-0.0023550975,0.1355642196126808
-0.0023544675,0.1345689850127519
-0.0023538375,0.1339054952794657
-0.0023532075,0.1322467709462494
-0.0023525775,0.1305880466130347
-0.0023519475,0.1295928120131054
-0.002351317500000001,0.1292610671464624
-0.0023506875,0.1272705979466036
-0.0023500575,0.1256118736133881
-0.0023494275,0.1242848941468157
-0.0023487975,0.1232896595468864
-0.0023481675,0.1219626800803131
-0.0023475375,0.1199722108804553
-0.0023469075,0.1183134865472398
-0.002346277500000001,0.1166547622140251
-0.0023456475,0.1159912724807381
-0.0023450175,0.1136690584142364
-0.0023443875,0.1120103340810208
-0.0023437575,0.1103516097478053
-0.0023431275,0.1086928854145894
-0.0023424975,0.1076976508146605
-0.0023418675,0.106038926481445
-0.002341237500000001,0.1050436918815161
-0.0023406075,0.1033849675483002
-0.0023399775,0.1030532226816571
-0.0023393475,0.1010627534817993
-0.0023387175,0.0987405394152967
-0.0023380875,0.09708181508208044
-0.0023374575,0.09542309074886567
-0.0023368275,0.09343262154900706
-0.002336197500000001,0.0924373869490782
-0.0023355675,0.09011517288257602
-0.0023349375,0.08945168314928981
-0.0023343075,0.08679772421614619
-0.0023336775,0.08547074474957256
-0.0023330475,0.08447551014964265
-0.0023324175,0.08314853068307083
-0.0023317875,0.08049457174992601
-0.002331157500000001,0.07817235768342534
-0.0023305275,0.07618188848356566
-0.0023298975,0.07551839875027945
-0.0023292675,0.07385967441706469
-0.0023286375,0.07220095008384841
-0.0023280075,0.07153746035056131
-0.0023273775,0.06954699115070359
-0.0023267475,0.06755652195084497
-0.0023261175,0.06556605275098529
-0.0023254875,0.06324383868448462
-0.0023248575,0.06158511435126911
-0.0023242275,0.05926290028476844
-0.0023235975,0.05793592081819497
-0.0023229675,0.05660894135162179
-0.0023223375,0.05495021701840704
-0.0023217075,0.05362323755183462
-0.0023210775,0.05063753375204624
-0.0023204475,0.04964229915211738
-0.0023198175,0.04765182995225875
-0.002319187500000001,0.04566136075240103
-0.0023185575,0.0430074018192553
-0.0023179275,0.04168042235268199
-0.0023172975,0.03968995315282427
-0.0023166675,0.03935820828618117
-0.0023160375,0.03670424935303557
-0.0023154075,0.03504552501982082
-0.0023147775,0.03239156608667598
-0.002314147500000001,0.02973760715353237
-0.0023135175,0.02940586228688806
-0.0023128875,0.02774713795367254
-0.0023122575,0.02509317902052771
-0.0023116275,0.02277096495402598
-0.0023109975,0.02144398548745266
-0.0023103675,0.01945351628759495
-0.0023097375,0.01812653682102253
-0.002309107500000001,0.01613606762116482
-0.0023084775,0.01414559842130529
-0.0023078475,0.01248687408808977
-0.0023072175,0.01082814975487501
-0.0023065875,0.008837680555015633
-0.0023059575,0.005851976755227096
-0.0023053275,0.004524997288655286
-0.0023046975,0.001871038355510456
-0.002304067500000001,0.001207548622224551
-0.0023034375,0.0002123140222949384
-0.0023028075,-0.002773389777492994
-0.0023021775,-0.005095603843993664
-0.0023015475,-0.006422583310567134
-0.0023009175,-0.008081307643783557
-0.0023002875,-0.01007177684364127
-0.0022996575,-0.01173050117685679
-0.002299027500000001,-0.0130574806434286
-0.0022983975,-0.01637492930986024
-0.0022977675,-0.01836539850971886
-0.0022971375,-0.02101935744286249
-0.0022965075,-0.022014592042793
-0.0022958775,-0.02334157150936647
-0.0022952475,-0.02566378557586714
-0.0022946175,-0.02665902017579645
-0.0022939875,-0.02831774450901333
-0.0022933575,-0.0313034483087999
-0.0022927275,-0.03263042777537233
-0.0022920975,-0.03462089697523003
-0.0022914675,-0.03661136617508956
-0.0022908375,-0.03760660077502008
-0.0022902075,-0.0402605597081637
-0.0022895775,-0.04258277377466543
-0.0022889475,-0.04457324297452449
-0.0022883175,-0.04556847757445336
-0.0022876875,-0.04722720190766888
-0.0022870575,-0.04888592624088364
-0.0022864275,-0.05087639544074302
-0.0022857975,-0.05220337490731664
-0.0022851675,-0.05485733384046027
-0.0022845375,-0.05684780304031888
-0.0022839075,-0.0588382722401784
-0.0022832775,-0.06082874144003612
-0.0022826475,-0.06381444523982406
-0.002282017500000001,-0.06381444523982406
-0.0022813875,-0.06580491443968269
-0.0022807575,-0.06779538363954131
-0.0022801275,-0.06879061823947062
-0.0022794975,-0.07177632203925854
-0.0022788675,-0.07376679123911763
-0.0022782375,-0.07476202583904648
-0.0022776075,-0.07608900530561889
-0.002276977500000001,-0.07841121937211956
-0.0022763475,-0.08073343343862234
-0.0022757175,-0.08139692317190855
-0.0022750875,-0.08338739237176718
-0.0022744575,-0.08504611670498269
-0.0022738275,-0.08670484103819927
-0.0022731975,-0.08902705510469994
-0.0022725675,-0.09068577943791545
-0.002271937500000001,-0.09134926917120136
-0.0022713075,-0.09333973837106029
-0.0022706775,-0.09566195243756201
-0.0022700475,-0.09698893190413382
-0.0022694175,-0.09997463570392236
-0.0022687875,-0.09964289083728062
-0.0022681575,-0.1026285946370672
-0.0022675275,-0.1036238292369965
-0.002266897500000001,-0.1046190638369253
-0.0022662675,-0.1062777881701413
-0.0022656375,-0.1086000022366431
-0.0022650075,-0.1112539611697867
-0.0022643775,-0.1112539611697879
-0.0022637475,-0.1129126855030037
-0.0022631175,-0.1135761752362896
-0.0022624875,-0.1158983893027913
-0.002261857500000001,-0.118220603369292
-0.0022612275,-0.1188840931025793
-0.0022605975,-0.1205428174357948
-0.0022599675,-0.1222015417690095
-0.0022593375,-0.1241920109688689
-0.0022587075,-0.1248555007021562
-0.0022580775,-0.1271777147686569
-0.0022574475,-0.1285046942352293
-0.0022568175,-0.1301634185684457
-0.0022561875,-0.1321538877683034
-0.0022555575,-0.1334808672348758
-0.0022549275,-0.1348078467014476
-0.0022542975,-0.1364665710346638
-0.0022536675,-0.1361348261680217
-0.0022530375,-0.1384570402345224
-0.0022524075,-0.140447509434381
-0.0022517775,-0.141774488900954
-0.0022511475,-0.1431014683675258
-0.0022505175,-0.143764958100812
-0.0022498875,-0.1457554273006697
-0.0022492575,-0.1474141516338862
-0.0022486275,-0.1477458965005302
-0.0022479975,-0.1497363657003879
-0.0022473675,-0.150068110567031
-0.0022467375,-0.1523903246335333
-0.0022461075,-0.1537173041001051
-0.0022454775,-0.1540490489667482
-0.002244847500000001,-0.155707773299963
-0.0022442175,-0.1567030078998931
-0.0022435875,-0.1593569668330379
-0.0022429575,-0.1610156911662534
-0.0022423275,-0.1613474360328965
-0.0022416975,-0.1623426706328266
-0.0022410675,-0.1640013949660414
-0.0022404375,-0.1643331398326845
-0.002239807500000001,-0.1663236090325421
-0.0022391775,-0.1666553538991862
-0.0022385475,-0.1676505884991155
-0.0022379175,-0.1689775679656873
-0.0022372875,-0.1703045474322603
-0.0022366575,-0.1719632717654765
-0.0022360275,-0.1732902512320482
-0.0022353975,-0.1739537409653344
-0.002234767500000001,-0.1739537409653344
-0.0022341375,-0.1749489755652638
-0.0022335075,-0.1769394447651224
-0.0022328775,-0.1776029344984083
-0.0022322475,-0.1769394447651224
-0.0022316175,-0.1789299139649824
-0.0022309875,-0.1819156177647689
-0.0022303575,-0.1819156177647689
-0.002229727500000001,-0.1829108523646978
-0.0022290975,-0.1835743420979845
-0.0022284675,-0.1845695766979138
