data/signalDobler 50 ohm oscilo.csv

#Digilent WaveForms Oscilloscope Acquisition
#Device Name: Discovery2
#Serial Number: SN:210321B81678
#Date Time: 2025-03-28 22:23:04.320
#Sample rate: 1.5873e+06Hz
#Samples: 8192
#Trigger: Source: Channel 1 Type: Edge Condition: Rising Level: 40 mV Hyst.: Auto HoldOff: 0 s
#Channel 1: Range: 50 mV/div Offset: 0 V Sample Mode: Average
#Wavegen Channel 1: Running
#Mode: Simple
#Type: Sine
#Frequency: 1.2 kHz
#Period: 833.3333333 us
#Amplitude: 2 V
#Offset: 0 V
#Symmetry: 50 %
#Phase: 0 °
#Power Supplies: ON
#Positive Supply: ON
#Voltage: 5 V
#Negative Supply: ON
#Voltage: -5 V

#2,4kHz
#50 ohm 
Time (s),Channel 1 (V)
-0.0025803225,-0.09599369730420511
-0.0025796925,-0.09566195243756216
-0.0025790625,-0.0949984627042758
-0.0025784325,-0.09433497297098944
-0.0025778025,-0.09400322810434648
-0.0025771725,-0.09300799350441719
-0.0025765425,-0.09134926917120241
-0.0025759125,-0.09068577943791545
-0.0025752825,-0.08902705510469994
-0.0025746525,-0.08803182050477108
-0.0025740225,-0.08836356537141372
-0.0025733925,-0.08703658590484101
-0.0025727625,-0.08637309617155511
-0.0025721325,-0.086041351304912
-0.0025715025,-0.08438262697169603
-0.0025708725,-0.08338739237176718
-0.0025702425,-0.08272390263848096
-0.0025696125,-0.08239215777183802
-0.0025689825,-0.08040168857197924
-0.0025683525,-0.07973819883869288
-0.0025677225,-0.07940645397204993
-0.0025670925,-0.0774159847721913
-0.0025664625,-0.077415984772191
-0.0025658325,-0.07675249503890511
-0.0025652025,-0.07575726043897579
-0.0025645725,-0.07509377070568989
-0.0025639425,-0.07409853610576027
-0.0025633125,-0.0731033015058305
-0.0025626825,-0.07210806690590166
-0.0025620525,-0.07011759770604303
-0.0025614225,-0.06845887337282691
-0.0025607925,-0.0671318939062551
-0.0025601625,-0.06779538363954131
-0.0025595325,-0.06547316957304064
-0.0025589025,-0.06414619010646716
-0.0025582725,-0.06447793497311027
-0.0025576425,-0.06281921063989475
-0.0025570125,-0.06182397603996544
-0.0025563825,-0.06116048630667862
-0.0025557525,-0.05983350684010681
-0.0025551225,-0.05950176197346371
-0.0025544925,-0.05950176197346371
-0.0025538625,-0.05717954790696199
-0.0025532325,-0.05552082357374646
-0.0025526025,-0.05552082357374646
-0.0025519725,-0.05286686464060164
-0.0025513425,-0.05153988517402908
-0.0025507125,-0.05120814030738612
-0.0025500825,-0.05120814030738612
-0.0025494525,-0.0485541813742425
-0.0025488225,-0.04921767110752751
-0.0025481925,-0.04722720190766888
-0.0025475625,-0.04556847757445411
-0.0025469325,-0.04490498784116716
-0.0025463025,-0.04291451864130823
-0.0025456725,-0.04225102890802232
-0.0025450425,-0.04092404944144991
-0.0025444125,-0.04026055970816399
-0.0025437825,-0.03827009050830509
-0.0025431525,-0.03827009050830509
-0.0025425225,-0.03661136617509032
-0.0025418925,-0.03627962130844646
-0.0025412625,-0.03462089697523003
-0.0025406325,-0.03263042777537233
-0.0025400025,-0.03229868290872921
-0.0025393725,-0.03196693804208627
-0.0025387425,-0.02931297910894128
-0.0025381125,-0.02864948937565508
-0.0025374825,-0.02831774450901212
-0.0025368525,-0.02566378557586714
-0.0025362225,-0.02533204070922359
-0.0025355925,-0.02433680610929473
-0.0025349625,-0.02400506124265163
-0.0025343325,-0.0220145920427924
-0.0025337025,-0.02068761257622059
-0.0025330725,-0.01969237797629128
-0.0025324425,-0.01703841904314766
-0.0025318125,-0.01703841904314645
-0.0025311825,-0.01571143957657389
-0.0025305525,-0.01537969470993093
-0.0025299225,-0.01338922551007231
-0.0025292925,-0.0133892255100714
-0.0025286625,-0.01139875631021369
-0.0025280325,-0.01073526657692748
-0.0025274025,-0.008744797377069765
-0.0025267725,-0.007749562777139549
-0.0025261425,-0.00609083844392403
-0.0025255125,-0.00609083844392403
-0.0025248825,-0.005427348710637823
-0.0025242525,-0.003436879510778598
-0.0025236225,-0.002109900044206787
-0.0025229925,-0.001114665444277476
-0.0025223625,0.0008758037555802406
-0.0025217325,0.001207548622224249
-0.0025211025,0.00220278322215356
-0.0025204725,0.003529762688725974
-0.0025198425,0.004856742155298389
-0.0025192125,0.005188487021941945
-0.0025185825,0.006183721621870804
-0.0025179525,0.008505935688372528
-0.0025173225,0.00983291515494434
-0.0025166925,0.01082814975487425
-0.0025160625,0.01115989462151736
-0.0025154325,0.01281861895473212
-0.0025148025,0.0148090881545915
-0.0025141725,0.01580432275452111
-0.0025135425,0.01646781248780702
-0.0025129125,0.01845828168766564
-0.0025122825,0.0194535162875945
-0.0025116525,0.02044875088752426
-0.0025110225,0.02144398548745357
-0.0025103925,0.02243922008738243
-0.0025097625,0.02310270982066909
-0.0025091325,0.0244296892872418
-0.0025085025,0.02509317902052771
-0.0025078725,0.02642015848710012
-0.0025072425,0.02708364822038603
-0.0025066125,0.02774713795367254
-0.0025059825,0.02973760715353116
-0.0025053525,0.03073284175346002
-0.0025047225,0.0327233109533191
-0.0025040925,0.03239156608667643
-0.0025034625,0.03338680068660529
-0.0025028325,0.03604075961975013
-0.0025022025,0.03670424935303663
-0.0025015725,0.03736773908632254
-0.0025009425,0.03836297368625186
-0.0025003125,0.04101693261939547
-0.0024996825,0.04002169801946737
-0.0024990525,0.04101693261939744
-0.0024984225,0.0426756569526122
-0.0024977925,0.0430074018192553
-0.0024971625,0.04466612615247143
-0.0024965325,0.04599310561904324
-0.0024959025,0.04632485048568634
-0.0024952725,0.0473200850856152
-0.0024946425,0.04864706455218806
-0.0024940125,0.04964229915211783
-0.0024933825,0.05063753375204669
-0.0024927525,0.0519645132186191
-0.0024921225,0.05262800295190546
-0.0024914925,0.05295974781854841
-0.0024908625,0.05428672728512082
-0.0024902325,0.05561370675169263
-0.0024896025,0.05594545161833635
-0.0024889725,0.05727243108490876
-0.0024883425,0.05893115541812427
-0.0024877125,0.05893115541812427
-0.0024870825,0.0602581348846973
-0.0024864525,0.06158511435126911
-0.0024858225,0.06191685921791221
-0.0024851925,0.06291209381784106
-0.0024845625,0.06423907328441393
-0.0024839325,0.06556605275098634
-0.0024833025,0.06656128735091565
-0.0024826725,0.06656128735091565
-0.0024820425,0.06722477708420217
-0.0024814125,0.06788826681748807
-0.0024807825,0.06822001168413118
-0.0024801525,0.06921524628406003
-0.0024795225,0.0712057154839191
-0.0024788925,0.0705422257506329
-0.0024782625,0.0712057154839188
-0.0024776325,0.07220095008384841
-0.0024770025,0.07385967441706424
-0.0024763725,0.07452316415035014
-0.0024757425,0.07551839875027945
-0.0024751125,0.07618188848356536
-0.0024744825,0.07717712308349498
-0.0024738525,0.07750886795013807
-0.0024732225,0.07784061281678102
-0.0024725925,0.0798310820166398
-0.0024719625,0.08016282688328305
-0.0024713325,0.08049457174992601
-0.0024707025,0.08182155121649842
-0.0024700725,0.08182155121649842
-0.0024694425,0.08348027554971393
-0.0024688125,0.08381202041635705
-0.0024681825,0.0848072550162859
-0.0024675525,0.08547074474957256
-0.0024669225,0.08580248961621567
-0.0024662925,0.08580248961621567
-0.0024656625,0.08712946908278808
-0.0024650325,0.08779295881607428
-0.0024644025,0.08779295881607428
-0.0024637725,0.0881247036827174
-0.0024631425,0.08978342801593216
-0.0024625125,0.09144215234914843
-0.0024618825,0.09077866261586252
-0.0024612525,0.09144215234914843
-0.0024606225,0.09210564208243463
-0.0024599925,0.09177389721579228
-0.0024593625,0.09343262154900706
-0.0024587325,0.09343262154900706
-0.0024581025,0.0944278561489359
-0.0024574725,0.09409611128229325
-0.0024568425,0.09475960101557947
-0.0024562125,0.09675007021543809
-0.0024555825,0.09708181508208119
-0.0024549525,0.09708181508208073
-0.0024543225,0.09608658048215188
-0.0024536925,0.0987405394152967
-0.0024530625,0.09741355994872489
-0.0024524325,0.0980770496820105
-0.0024518025,0.09907228428193982
-0.0024511725,0.1003992637485122
-0.0024505425,0.1010627534817984
-0.0024499125,0.09973577401522707
-0.0024492825,0.1020579880817277
-0.0024486525,0.1010627534817984
-0.0024480225,0.1017262432150843
-0.0024473925,0.102721477815014
-0.0024467625,0.1017262432150846
-0.0024461325,0.1027214778150135
-0.0024455025,0.1030532226816571
-0.0024448725,0.1047119470148724
-0.0024442425,0.1043802021482295
-0.0024436125,0.1053754367481588
-0.0024429825,0.1060389264814447
-0.0024423525,0.1050436918815157
-0.0024417225,0.1057071816148019
-0.0024410925,0.1057071816148019
-0.0024404625,0.106038926481445
-0.0024398325,0.1063706713480879
-0.0024392025,0.106038926481445
-0.0024385725,0.1080293956813036
-0.0024379425,0.1070341610813748
-0.0024373125,0.1070341610813743
-0.0024366825,0.1090246302812329
-0.0024360525,0.1080293956813041
-0.0024354225,0.1083611405479467
-0.0024347925,0.1073659059480185
-0.0024341625,0.1096881200145191
-0.0024335325,0.1090246302812329
-0.0024329025,0.1090246302812332
-0.0024322725,0.1096881200145191
-0.0024316425,0.1100198648811622
-0.0024310125,0.1103516097478052
-0.0024303825,0.1103516097478053
-0.0024297525,0.1103516097478055
-0.0024291225,0.1106833546144484
-0.0024284925,0.1103516097478053
-0.0024278625,0.1113468443477342
-0.0024272325,0.1103516097478053
-0.0024266025,0.1106833546144484
-0.0024259725,0.1103516097478055
-0.0024253425,0.1106833546144484
-0.0024247125,0.111346844347735
-0.0024240825,0.1120103340810208
-0.0024234525,0.1116785892143777
-0.0024228225,0.1106833546144483
-0.0024221925,0.1103516097478053
-0.0024215625,0.1120103340810208
-0.0024209325,0.1120103340810208
-0.0024203025,0.1116785892143777
-0.0024196725,0.1110150994810915
-0.0024190425,0.1116785892143777
-0.0024184125,0.1116785892143777
-0.0024177825,0.1106833546144489
-0.0024171525,0.1116785892143777
-0.0024165225,0.1110150994810915
-0.0024158925,0.1113468443477345
-0.0024152625,0.1106833546144484
-0.0024146325,0.1096881200145191
-0.0024140025,0.1113468443477346
-0.0024133725,0.1116785892143777
-0.0024127425,0.1103516097478053
-0.0024121125,0.1103516097478053
-0.0024114825,0.1103516097478053
-0.0024108525,0.1100198648811624
-0.0024102225,0.1113468443477346
-0.0024095925,0.1106833546144484
-0.0024089625,0.1103516097478055
-0.0024083325,0.1096881200145191
-0.0024077025,0.1086928854145906
-0.0024070725,0.1103516097478053
-0.0024064425,0.1090246302812329
-0.0024058125,0.1090246302812329
-0.0024051825,0.1090246302812329
-0.0024045525,0.109356375147876
-0.0024039225,0.1086928854145901
-0.0024032925,0.1073659059480174
-0.0024026625,0.1080293956813041
-0.0024020325,0.1090246302812329
-0.0024014025,0.1073659059480174
-0.0024007725,0.1063706713480885
-0.0024001425,0.1067024162147312
-0.0023995125,0.106038926481445
-0.0023988825,0.105707181614802
-0.0023982525,0.1057071816148019
-0.0023976225,0.1053754367481583
-0.0023969925,0.1043802021482295
-0.0023963625,0.1047119470148726
-0.0023957325,0.1033849675483005
-0.0023951025,0.1040484572815864
-0.0023944725,0.1023897329483709
-0.0023938425,0.1027214778150138
-0.0023932125,0.1020579880817277
-0.0023925825,0.1023897329483703
-0.0023919525,0.1010627534817984
-0.0023913225,0.09973577401522601
-0.0023906925,0.1000675188818693
-0.0023900625,0.1003992637485122
-0.0023894325,0.09940402914858291
-0.0023888025,0.09874053941529701
-0.0023881725,0.09973577401522601
-0.0023875425,0.09940402914858232
-0.0023869125,0.0980770496820105
-0.0023862825,0.09708181508208119
-0.0023856525,0.09608658048215188
-0.0023850225,0.09608658048215188
-0.0023843925,0.09608658048215188
-0.0023837625,0.09542309074886597
-0.0023831325,0.09409611128229325
-0.0023825025,0.09310087668236394
-0.0023818725,0.09343262154900706
-0.0023812425,0.09243738694907774
-0.0023806125,0.09310087668236348
-0.0023799825,0.09210564208243463
-0.0023793525,0.09077866261586222
-0.0023787225,0.09011517288257632
-0.0023780925,0.09011517288257602
-0.0023774625,0.08911993828264671
-0.0023768325,0.08878819341600375
-0.0023762025,0.08746121394943118
-0.0023755725,0.08712946908278808
-0.0023749425,0.08712946908278808
-0.0023743125,0.08513899988292946
-0.0023736825,0.08381202041635764
-0.0023730525,0.08348027554971393
-0.0023724225,0.08381202041635705
-0.0023717925,0.08248504094978523
-0.0023711625,0.08248504094978464
-0.0023705325,0.0811580614832119
-0.0023699025,0.08049457174992601
-0.0023692725,0.0798310820166398
-0.0023686425,0.0791675922833539
-0.0023680125,0.0791675922833536
-0.0023673825,0.07717712308349498
-0.0023667525,0.07618188848356612
-0.0023661225,0.07585014361692256
-0.0023654925,0.07452316415034983
-0.0023648625,0.07385967441706394
-0.0023642325,0.07419141928370704
-0.0023636025,0.07352792955042052
-0.0023629725,0.07286443981713463
-0.0023623425,0.0712057154839191
-0.0023617125,0.0712057154839191
-0.0023610825,0.07021048088398979
-0.0023604525,0.06954699115070284
-0.0023598225,0.06788826681748807
-0.0023591925,0.06722477708420187
-0.0023585625,0.06656128735091535
-0.0023579325,0.06589779761762946
-0.0023573025,0.06556605275098634
-0.0023566725,0.06357558355112862
-0.0023560425,0.06324383868448462
-0.0023554125,0.06191685921791176
-0.0023547825,0.06092162461798289
-0.0023541525,0.06092162461798289
-0.0023535225,0.05992639001805298
-0.0023528925,0.05859941055148117
-0.0023522625,0.05826766568483807
-0.0023516325,0.05694068621826626
-0.0023510025,0.05727243108490876
-0.0023503725,0.05627719648497945
-0.0023497425,0.05495021701840704
-0.0023491125,0.05395498241847772
-0.0023484825,0.05295974781854765
-0.0023478525,0.0513010234853329
-0.0023472225,0.04997404401876047
-0.0023465925,0.04997404401876047
-0.0023459625,0.04931055428547428
-0.0023453325,0.04798357481890186
-0.0023447025,0.04665659535232944
-0.0023440725,0.04566136075240013
-0.0023434425,0.04599310561904234
-0.0023428125,0.04400263641918462
-0.0023421825,0.0433391466858984
-0.0023415525,0.04168042235268365
-0.0023409225,0.04134867748603979
-0.0023402925,0.04101693261939668
-0.0023396625,0.04035344288611078
-0.0023390325,0.03836297368625186
-0.0023384025,0.03736773908632254
-0.0023377725,0.03736773908632254
-0.0023371425,0.03637250448639323
-0.0023365125,0.03604075961975028
-0.0023358825,0.03504552501982082
-0.0023352525,0.03371854555324841
-0.0023346225,0.03205982122003364
-0.0023339925,0.03040109688681737
-0.0023333625,0.0290741174202445
-0.0023327325,0.02807888282031564
-0.0023321025,0.02807888282031564
-0.0023314725,0.02741539308702974
-0.0023308425,0.02575666875381392
-0.0023302125,0.02542492388717081
-0.0023295825,0.02376619955395605
-0.0023289525,0.02243922008738288
-0.0023283225,0.02277096495402538
-0.0023276925,0.02144398548745357
-0.0023270625,0.02011700602088115
-0.0023264325,0.0197852611542373
-0.0023258025,0.01812653682102253
-0.0023251725,0.01713130222109322
-0.0023245425,0.01547257788787846
-0.0023239125,0.01414559842130529
-0.0023232825,0.01381385355466219
-0.0023226525,0.01381385355466219
-0.0023220225,0.01215512922144667
-0.0023213925,0.01115989462151721
-0.0023207625,0.01082814975487425
-0.0023201325,0.008837680555015633
-0.0023195025,0.008174190821729727
-0.0023188725,0.007510701088443218
-0.0023182425,0.006515466488513001
-0.0023176125,0.004524997288655286
-0.0023169825,0.004524997288655286
-0.0023163525,0.002866272955439465
-0.0023157225,0.00220278322215356
-0.0023150925,0.001871038355510456
-0.0023144625,-0.0001194308443472603
-0.0023138325,-0.002109900044206787
-0.0023132025,-0.00244164491084989
-0.0023125725,-0.003436879510779201
-0.0023119425,-0.003768624377422305
-0.0023113125,-0.004763858977351917
-0.0023106825,-0.005427348710637823
-0.0023100525,-0.00609083844392403
-0.0023094225,-0.0084130525104247
-0.0023087925,-0.01007177684364127
-0.0023081625,-0.009076542243711962
-0.0023075325,-0.009408287110354916
-0.0023069025,-0.0120622460434999
-0.0023062725,-0.01372097037671526
-0.0023056425,-0.01338922551007231
-0.0023050125,-0.01405271524335852
-0.0023043825,-0.01504794984328738
-0.0023037525,-0.01703841904314645
-0.0023031225,-0.01803365364307576
-0.0023024925,-0.01737016390978986
-0.0023018625,-0.01836539850971886
-0.0023012325,-0.02002412284293513
-0.0023006025,-0.0216828471761499
-0.0022999725,-0.02267808177607921
-0.0022993425,-0.02300982664272216
-0.0022987125,-0.02367331637600852
-0.0022980825,-0.02433680610929473
-0.0022974525,-0.02566378557586654
-0.0022968225,-0.02699076504243956
-0.0022961925,-0.02732250990908311
-0.0022955625,-0.02831774450901197
-0.0022949325,-0.02931297910894128
-0.0022943025,-0.03030821370887105
-0.0022936725,-0.0313034483087999
-0.0022930425,-0.0309717034421568
-0.0022924125,-0.03263042777537157
-0.0022917825,-0.03428915210858784
-0.0022911525,-0.035284386708517
-0.0022905225,-0.03495264184187405
-0.0022898925,-0.03528438670851715
-0.0022892625,-0.03793834564166212
-0.0022886325,-0.03827009050830509
-0.0022880025,-0.03893358024159128
-0.0022873725,-0.0395970699748772
-0.0022867425,-0.04059230457480681
-0.0022861125,-0.04158753917473642
-0.0022854825,-0.04225102890802232
-0.0022848525,-0.04258277377466543
-0.0022842225,-0.04357800837459534
-0.0022835925,-0.04490498784116716
-0.0022829625,-0.04523673270781026
-0.0022823325,-0.04590022244109617
-0.0022817025,-0.04722720190766888
-0.0022810725,-0.04822243650759819
-0.0022804425,-0.04855418137424129
-0.0022798125,-0.0495494159741706
-0.0022791825,-0.04954941597417121
-0.0022785525,-0.05087639544074302
-0.0022779225,-0.05253511977395854
-0.0022772925,-0.05253511977395854
-0.0022766625,-0.05319860950724474
-0.0022760325,-0.05319860950724474
-0.0022754025,-0.05552082357374646
-0.0022747725,-0.05452558897381715
-0.0022741425,-0.05684780304031888
-0.0022735125,-0.05684780304031888
-0.0022728825,-0.05751129277360509
-0.0022722525,-0.05751129277360509
-0.0022716225,-0.05917001710682061
-0.0022709925,-0.05950176197346371
-0.0022703625,-0.05983350684010666
-0.0022697325,-0.06215572090660854
-0.0022691025,-0.06215572090660883
-0.0022684725,-0.06281921063989475
-0.0022678425,-0.06281921063989475
-0.0022672125,-0.06348270037318066
-0.0022665825,-0.06547316957303959
-0.0022659525,-0.06514142470639647
-0.0022653225,-0.06680014903961125
-0.0022646925,-0.066800149039612
-0.0022640625,-0.06746363877289804
-0.0022634325,-0.0671318939062551
-0.0022628025,-0.06812712850618441
-0.0022621725,-0.06845887337282736
-0.0022615425,-0.06845887337282751
-0.0022609125,-0.07044934257268613
-0.0022602825,-0.07078108743932908
-0.0022596525,-0.07177632203925854
-0.0022590225,-0.07177632203925914
-0.0022583925,-0.07310330150583096
-0.0022577625,-0.07310330150583096
-0.0022571325,-0.07343504637247376
-0.0022565025,-0.07277155663918786
-0.0022558725,-0.07310330150583096
-0.0022552425,-0.07476202583904573
-0.0022546125,-0.07575726043897579
-0.0022539825,-0.07642075017226214
-0.0022533525,-0.07675249503890511
-0.0022527225,-0.07675249503890511
-0.0022520925,-0.07774772963883532
-0.0022514625,-0.07973819883869303
-0.0022508325,-0.07874296423876373
-0.0022502025,-0.07841121937212077
-0.0022495725,-0.07907470910540683
-0.0022489425,-0.07940645397205039
-0.0022483125,-0.08040168857197924
-0.0022476825,-0.08040168857197924
-0.0022470525,-0.08040168857198014
-0.0022464225,-0.08239215777183787
-0.0022457925,-0.08239215777183787
-0.0022451625,-0.08206041290519492
-0.0022445325,-0.08338739237176718
-0.0022439025,-0.08272390263848096
-0.0022432725,-0.08272390263848096
-0.0022426425,-0.08371913723841028
-0.0022420125,-0.08405088210505397
-0.0022413825,-0.0853778615716258
-0.0022407525,-0.08504611670498269
-0.0022401225,-0.08604135130491154
-0.0022394925,-0.08670484103819821
-0.0022388625,-0.0857096064382689
-0.0022382325,-0.08637309617155481
-0.0022376025,-0.08736833077148441
-0.0022369725,-0.08770007563812722
-0.0022363425,-0.08703658590484131
-0.0022357125,-0.08803182050477062
-0.0022350825,-0.08803182050477062
-0.0022344525,-0.08902705510469994
-0.0022338225,-0.08803182050477062
-0.0022331925,-0.08803182050477062
-0.0022325625,-0.08836356537141372
-0.0022319325,-0.08935879997134334
-0.0022313025,-0.09002228970462925
-0.0022306725,-0.09002228970462925
-0.0022300425,-0.0896905448379863
-0.0022294125,-0.08935879997134304
-0.0022287825,-0.09035403457127235
-0.0022281525,-0.0913492691712012
-0.0022275225,-0.09134926917120166
-0.0022268925,-0.09101752430455887
-0.0022262625,-0.09168101403784476
-0.0022256325,-0.09168101403784476
-0.0022250025,-0.09234450377113097
-0.0022243725,-0.09234450377113097
